// Jest Snapshot v1, https://goo.gl/fbAQLP

exports[`FinanceProductItem renders correctly 1`] = `
<View
  style={
    [
      {
        "backgroundColor": "#fff",
      },
      {
        "alignItems": "center",
        "borderColor": "gray",
        "borderRadius": 5,
        "borderWidth": 1,
        "display": "flex",
        "flexDirection": "row",
        "justifyContent": "space-between",
        "padding": 9,
        "width": "90%",
      },
    ]
  }
>
  <View
    style={
      [
        {
          "backgroundColor": "#fff",
        },
        {
          "alignItems": "flex-start",
          "flex": 1,
          "flexDirection": "column",
          "justifyContent": "center",
        },
      ]
    }
  >
    <Text
      style={
        [
          {
            "color": "#000",
          },
          {
            "fontSize": 15,
            "fontWeight": "bold",
          },
        ]
      }
    >
      Test Title
    </Text>
    <Text
      style={
        [
          {
            "color": "#000",
          },
          {
            "color": "gray",
            "fontSize": 12,
            "fontWeight": "300",
          },
        ]
      }
    >
      Test Subtitle
    </Text>
  </View>
  <View
    accessibilityState={
      {
        "busy": undefined,
        "checked": undefined,
        "disabled": undefined,
        "expanded": undefined,
        "selected": undefined,
      }
    }
    accessibilityValue={
      {
        "max": undefined,
        "min": undefined,
        "now": undefined,
        "text": undefined,
      }
    }
    accessible={true}
    collapsable={false}
    focusable={true}
    onBlur={[Function]}
    onClick={[Function]}
    onFocus={[Function]}
    onResponderGrant={[Function]}
    onResponderMove={[Function]}
    onResponderRelease={[Function]}
    onResponderTerminate={[Function]}
    onResponderTerminationRequest={[Function]}
    onStartShouldSetResponder={[Function]}
    testID="arrow-icon"
  >
    <Text />
  </View>
</View>
`;
